<svg id="Capa_1" version="1.1" viewBox="0 0 399 511" xmlns="http://www.w3.org/2000/svg">
  <path id="rect7844" d="m287.21 85.876 1.3221-76.683 101.47 101.8-80.98-1.3221z" style="fill:#8fbcef"/>
  <path id="rect1339" d="m7.5783 27.041 18.84-16.527 262.11-1.3221-1.3221 76.683 21.815 23.798 80.98 1.3221-0.99159 368.21-17.518 18.675-338.79 4.1316-23.137-20.823z" style="fill:#deebfa"/>
  <path id="path2" d="m398.96 110.75c-0.018-0.185-0.05-0.365-0.081-0.545-0.011-0.06-0.016-0.122-0.028-0.182-0.043-0.215-0.098-0.425-0.159-0.632-7e-3 -0.025-0.012-0.052-0.02-0.077-0.065-0.213-0.141-0.421-0.224-0.625-8e-3 -0.021-0.015-0.043-0.023-0.064-0.081-0.195-0.173-0.384-0.269-0.57-0.016-0.031-0.029-0.063-0.045-0.094-0.093-0.173-0.196-0.339-0.301-0.504-0.027-0.042-0.05-0.086-0.077-0.127-0.103-0.154-0.216-0.3-0.33-0.446-0.037-0.048-0.07-0.098-0.109-0.145-0.142-0.173-0.294-0.338-0.45-0.498-0.015-0.015-0.027-0.031-0.042-0.046l-104-104c-0.018-0.018-0.038-0.033-0.057-0.051-0.156-0.153-0.317-0.301-0.486-0.44-0.055-0.045-0.113-0.083-0.169-0.126-0.138-0.107-0.275-0.214-0.42-0.311-0.051-0.034-0.105-0.062-0.156-0.095-0.156-0.099-0.312-0.197-0.475-0.284-0.036-0.019-0.074-0.035-0.111-0.053-0.181-0.093-0.365-0.183-0.554-0.262-0.024-0.01-0.049-0.017-0.074-0.027-0.202-0.081-0.406-0.157-0.616-0.221-0.027-8e-3 -0.054-0.013-0.081-0.021-0.206-0.06-0.415-0.115-0.628-0.158-0.063-0.013-0.128-0.018-0.192-0.029-0.177-0.031-0.354-0.062-0.536-0.08-0.248-0.025-0.498-0.038-0.749-0.038h-248c-21.78 0-39.5 17.72-39.5 39.5v432c0 21.78 17.72 39.5 39.5 39.5h320c21.78 0 39.5-17.72 39.5-39.5v-360c0-0.251-0.013-0.501-0.038-0.749zm-103.96-85.145 78.394 78.394h-53.894c-13.509 0-24.5-10.99-24.5-24.5zm64.5 470.39h-320c-13.509 0-24.5-10.99-24.5-24.5v-432c0-13.51 10.991-24.5 24.5-24.5h240.5v64.5c0 21.78 17.72 39.5 39.5 39.5h64.5v352.5c0 13.51-10.991 24.5-24.5 24.5z" style="fill:#227ce0"/>
  <g id="text13363" transform="translate(-55.998 .001)" style="fill:#c00000" aria-label="↓">
    <path id="path8918" d="m273.31 146.53v225.42l59.167-59.167v47.083l-75.625 83.125-78.333-83.125v-47.083l59.583 59.167v-225.42z"/>
  </g>
</svg>
